\relax 
\providecommand\HyperFirstAtBeginDocument{\AtBeginDocument}
\HyperFirstAtBeginDocument{\ifx\hyper@anchor\@undefined
\global\let\oldcontentsline\contentsline
\gdef\contentsline#1#2#3#4{\oldcontentsline{#1}{#2}{#3}}
\global\let\oldnewlabel\newlabel
\gdef\newlabel#1#2{\newlabelxx{#1}#2}
\gdef\newlabelxx#1#2#3#4#5#6{\oldnewlabel{#1}{{#2}{#3}}}
\AtEndDocument{\ifx\hyper@anchor\@undefined
\let\contentsline\oldcontentsline
\let\newlabel\oldnewlabel
\fi}
\fi}
\global\let\hyper@last\relax 
\gdef\HyperFirstAtBeginDocument#1{#1}
\providecommand\HyField@AuxAddToFields[1]{}
\providecommand\HyField@AuxAddToCoFields[2]{}
\@writefile{toc}{\contentsline {section}{Education}{1}{section*.1}\protected@file@percent }
\@writefile{toc}{\contentsline {section}{R Packages}{1}{section*.2}\protected@file@percent }
\@writefile{toc}{\contentsline {section}{Articles}{1}{section*.3}\protected@file@percent }
\@writefile{toc}{\contentsline {subsection}{Submitted articles}{1}{section*.4}\protected@file@percent }
\@writefile{toc}{\contentsline {section}{Academia}{1}{section*.5}\protected@file@percent }
\@writefile{toc}{\contentsline {section}{Scholarships/Awards}{2}{section*.6}\protected@file@percent }
\@writefile{toc}{\contentsline {section}{Research Projects}{2}{section*.7}\protected@file@percent }
\@writefile{toc}{\contentsline {section}{Scientific Activities}{2}{section*.8}\protected@file@percent }
\@writefile{toc}{\contentsline {subsection}{Workshops}{2}{section*.9}\protected@file@percent }
\@writefile{toc}{\contentsline {subsection}{Conferences}{2}{section*.10}\protected@file@percent }
\@writefile{toc}{\contentsline {section}{Skills}{3}{section*.11}\protected@file@percent }
\@writefile{toc}{\contentsline {subsection}{Equipment and sample preparation}{3}{section*.12}\protected@file@percent }
\@writefile{toc}{\contentsline {subsection}{Software}{3}{section*.13}\protected@file@percent }
\@writefile{toc}{\contentsline {section}{Extracurricular Activities}{3}{section*.14}\protected@file@percent }
\@writefile{toc}{\contentsline {section}{Personal References}{3}{section*.15}\protected@file@percent }
\newlabel{lastpage}{{}{3}{}{section*.15}{}}
