\BOOKMARK [1][]{section*.1}{\376\377\000E\000d\000u\000c\000a\000t\000i\000o\000n}{}% 1
\BOOKMARK [1][]{section*.2}{\376\377\000R\000\040\000P\000a\000c\000k\000a\000g\000e\000s}{}% 2
\BOOKMARK [1][]{section*.3}{\376\377\000A\000r\000t\000i\000c\000l\000e\000s}{}% 3
\BOOKMARK [2][]{section*.4}{\376\377\000P\000e\000e\000r\000\040\000r\000e\000v\000i\000e\000w\000e\000r}{section*.3}% 4
\BOOKMARK [1][]{section*.5}{\376\377\000A\000c\000a\000d\000e\000m\000i\000a}{}% 5
\BOOKMARK [1][]{section*.6}{\376\377\000S\000c\000h\000o\000l\000a\000r\000s\000h\000i\000p\000s\000/\000A\000w\000a\000r\000d\000s}{}% 6
\BOOKMARK [1][]{section*.7}{\376\377\000R\000e\000s\000e\000a\000r\000c\000h\000\040\000P\000r\000o\000j\000e\000c\000t\000s}{}% 7
\BOOKMARK [1][]{section*.8}{\376\377\000C\000o\000n\000f\000e\000r\000e\000n\000c\000e\000s}{}% 8
\BOOKMARK [1][]{section*.9}{\376\377\000W\000o\000r\000k\000s\000h\000o\000p\000s}{}% 9
\BOOKMARK [1][]{section*.10}{\376\377\000S\000o\000f\000t\000w\000a\000r\000e\000\040\000S\000k\000i\000l\000l\000s}{}% 10
\BOOKMARK [1][]{section*.11}{\376\377\000E\000x\000t\000r\000a\000c\000u\000r\000r\000i\000c\000u\000l\000a\000r\000\040\000A\000c\000t\000i\000v\000i\000t\000i\000e\000s}{}% 11
\BOOKMARK [1][]{section*.12}{\376\377\000P\000e\000r\000s\000o\000n\000a\000l\000\040\000R\000e\000f\000e\000r\000e\000n\000c\000e\000s}{}% 12
