\relax 
\providecommand\HyperFirstAtBeginDocument{\AtBeginDocument}
\HyperFirstAtBeginDocument{\ifx\hyper@anchor\@undefined
\global\let\oldcontentsline\contentsline
\gdef\contentsline#1#2#3#4{\oldcontentsline{#1}{#2}{#3}}
\global\let\oldnewlabel\newlabel
\gdef\newlabel#1#2{\newlabelxx{#1}#2}
\gdef\newlabelxx#1#2#3#4#5#6{\oldnewlabel{#1}{{#2}{#3}}}
\AtEndDocument{\ifx\hyper@anchor\@undefined
\let\contentsline\oldcontentsline
\let\newlabel\oldnewlabel
\fi}
\fi}
\global\let\hyper@last\relax 
\gdef\HyperFirstAtBeginDocument#1{#1}
\providecommand\HyField@AuxAddToFields[1]{}
\providecommand\HyField@AuxAddToCoFields[2]{}
\@writefile{toc}{\contentsline {section}{Education}{1}{section*.1}}
\@writefile{toc}{\contentsline {section}{R Packages}{1}{section*.2}}
\@writefile{toc}{\contentsline {section}{Articles}{1}{section*.3}}
\@writefile{toc}{\contentsline {subsection}{Peer reviewer}{1}{section*.4}}
\@writefile{toc}{\contentsline {section}{Academia}{1}{section*.5}}
\@writefile{toc}{\contentsline {section}{Scholarships/Awards}{2}{section*.6}}
\@writefile{toc}{\contentsline {section}{Research Projects}{2}{section*.7}}
\@writefile{toc}{\contentsline {section}{Conferences}{3}{section*.8}}
\@writefile{toc}{\contentsline {section}{Workshops}{4}{section*.9}}
\@writefile{toc}{\contentsline {section}{Software Skills}{4}{section*.10}}
\@writefile{toc}{\contentsline {section}{Extracurricular Activities}{4}{section*.11}}
\@writefile{toc}{\contentsline {section}{Personal References}{4}{section*.12}}
\newlabel{lastpage}{{}{4}{}{section*.12}{}}
