,Icon used from font-awesome 4 to label this contact section,The actual value written for the contact entry
loc,icon,contact
email,envelope,quirozmoreno.1@osu.edu
twitter,twitter,cristianquirozd
github,github,DanielQuiroz97
gitlab,gitlab,DanielQuiroz97
link,link,https://danielquiroz97.gitlab.io/