section,in_resume,title,loc,institution,start,end,description_1,description_2,description_3
education,TRUE,Bsc. Biotechnology,Natural Products Lab,"Ikiam University, EC",2014,2020,Thesis: [RGCxGC](https://CRAN.R-project.org/package=RGCxGC) toolbox to analyze GCxGC-MS data,GPA: 8.5/10,
education,TRUE,PhD Student,Jessica Coopersonte Lab,"Ohio State University, OH",2021,Present,Working in untargeted plant metabolomics,My tasks includes metabolite compound discovery and multi-omics data analysis ,
academic_articles,TRUE,New Advances in toxicological forensic analysis using mass spectrometry techniques,Journal of analytical methods in chemistry,,2018,2018,"Mogollon N., **Quiroz-Moreno C.**, et al.",Doi: 10.1016/j.microc.20.104830,
academic_articles,TRUE,RGCxGC toolbox: an R-package for data processing in comprehensive two-dimensional gas chromatography-mass spectrometry,Microchemical Journal,,2020,2020,"**Quiroz-Moreno C.**, et al.",Doi: 10.1155/2018/4142527,
awards,TRUE,Economical vulnerability scholarship,Ecuadorian Promotion of Human Talent Institute,"IFHT, EC",2014,2020,Amount: 25 000 usd,Granted to conduct my bachelor studies,
awards,TRUE,Best thesis proposal,,"Ikiam University, EC",2019,2019,Prize: A symposium fee,Best thesis proposal among 84 studens,
academia,FALSE,Lab assistant,Interships,"Ikiam University, EC",2019,2020,"My responsabilities  included to prepare lab practices to analyze samples with UV-VIS-NIR, HPLC-DAD, AOC 6000  coupled with a GCxGC-FID, and HPLC-MS/MS equipment.",2 Semesters,"Supervisor: Noroska Mogollon,  PhD (noroska.mogollon@ikiam.edu.ec)"
academia,FALSE,GC and LC analyst,Studenship,[CENTROCESAL](https://www.centrocesal.com/),2019,2019,"My work included quantitation of several types of analytes, such as: antibiotics, vitamins, pesticides, hormones, among others.",1.5 months,"Supervisor:  CEO Carlos Lopez, MSc. (carlos_lopez@centrocesal.com)"
academia,FALSE,Lab assistant,Interships,[CENAIM](www.cenaim.espol.edu.ec),2018,2020,"I worked with marine samples in order to extract microbial metabolites. Sample treatment includes LLE , SPE, preparative and analytical LC.",2 months,"Supervisor: Bolivar Chalen,  MSc. (bochelan@espol.edu.ec)"
workshop,FALSE,Sequencing for non-invasive sampling: Epigenetic and microbiome,Workshop,"ESPOL, EC",2019,2019,80 hours,,
workshop,FALSE,Metagenomics for environmental remediation,Workshop,"ESPOL, EC",2018,2018,40 hours,,
workshop,FALSE,Metabolomic analysis in microbial antagonism by liquid Chromatography coupled with chemometrics algorithms,Conference,"ESPOCH, EC",2018,2018,Oral presentation,"Chalen, B, **Quiroz-Moreno C.**, et al.",I International Conference of Chemistry
workshop,FALSE,Bacteria Ark: Microbial ecology in environments with different degrees of disturbance ,Conference,"Ikiam university, EC",2017,2017,Oral presentation,"**Quiroz-Moreno C.**, et al.",I Latinoamerican conference of Biogeography
workshop,FALSE,Rotational spectroscopy and chemometrics as tools for analysis of pharmaceutical formulations: application in vitamin C,Conference,"USFQ, EC",2017,2017,Poster presentation,"**Quiroz-Moreno C.**, et al.",Biomedicine conference
extracurricular,FALSE,"Strengthening of the artisanal mushroom production system as a subsistence alternative for the indigenous communities established in the Sumaco Napo-Galeras National Park, Ecuador",,"Ikiam university, EC",2019,2020,I test several organic sources in order to improve the production yield of *Pleurotus ostreatus*. Also I cultured viable strains in agar before substratum inoculation.,"Supervisor: Leopoldo Naranjo-Briceno, PhD (leopoldo.naranjo@ikiam.edu.ec)",
references,FALSE,"Gabriela Salazar, PhD",Professor,"Ikiam university, EC",,,PI of the Natural product chemistry lab,Gabriela is my bachelor thesis supervisor,noroska.salazar@ikiam.edu.ec 
references,FALSE,"Guilherme L. Alexandrino, PhD",Data Science,"Shell, Amsterdam",,,Former Post Doctoral Researche at the University of Copenhaguen,Guilherme is my bachelor thesis co-supervisor,alexandrinogl@gmail.com 
references,FALSE,"Pablo Jarrin, PhD",Professor,"Ikiam university, EC",,,Ikiam research coordinator,"Pablo is the director of the Bacteria Ark project (amplicon genomics), where I have worked for two years.",pablo.jarrin@ikiam.edu.ec