section,in_resume,title,loc,institution,start,end,description_1,description_2,description_3
education,TRUE,Bsc. Biotechnology,Natural Products Lab,"Ikiam University, Ecuador",2014,2020,Thesis: RGCxGC an R package for the ene-to-end  high-dimensional gas chromatography data analysis : https://cran.r-project.org/web/packages/RGCxGC/index.html,,
education,TRUE,PhD Student,Coopersonte Lab,"Ohio State University, OH",2021,Present,Apple multiomics (metabolomics and genomics) data analysis for nutritunial improvement,MS2extract: an R package for in-house MS/MS compound library creation https://github.com/CooperstoneLab/MS2extract,
academic_articles,TRUE,Short-Term Tomato Consumption Alters the Pig Gut Microbiome toward a More Favorable Profile,Microbiology Spectrum,,2022,2022,doi.org/10.1128/spectrum.02506-22,,
academic_articles,TRUE,New Advances in toxicological forensic analysis using mass spectrometry techniques,Journal of analytical methods in chemistry,,2018,2018,doi.org/10.1155/2018/4142527,,
academic_articles,TRUE,RGCxGC toolbox: an R-package for data processing in comprehensive two-dimensional gas chromatography-mass spectrometry,Microchemical Journal,,2020,2020,doi.org/10.1016/j.microc.2020.104830,,
academic_articles,TRUE,"Soil Bacterial Community Along an Altitudinal Gradient in the Sumaco, a Stratovolcano in the Amazon Region",Frontiers,,2022,2022,doi.org/10.3389/ffgc.2022.738568,,
awards,FALSE,Economic vulnerability scholarship,Ecuadorian Institute of Promotion of Human Talent,"IFHT, Ecuador",2014,2020,Amount: 25 000 usd,Granted to conduct my bachelor studies,
awards,FALSE,Rstudio::conf(2022) Diversity Scholarship,Posit,Washintong DC,2022,2022,Amount: 1 500 usd,,
academia,FALSE,Lab assistant,Internships,"Ikiam University, Ecuador",2019,2020,"Coordinate lab practices with UV-VIS-NIR, HPLC-DAD, AOC 6000  cupled with a GCxGC-FID, and HPLC-MS/MS equipment.",2 Semesters,
academia,FALSE,GC and LC analyst,Internships,"CENTROCESAL, Quito-Ecuador",2019,2019,"Quantificatitative analysis of analyties including pesticides, antibiotics, vitamines, among others",1.5 months,
academia,FALSE,Lab assistant,Internships,"CENAIM, Guayaquil-Ecuador",2018,2020,Marine ecosistems metabolomics: sample prepr and MS data acquisition,2 months,
workshop,FALSE,Development of a publicly available LC-MS/MS spectral library for the analysis of the Rosaceae metabolome,Ohio Mass Spectrometry and Metabolomics Meeting,"Columbus, USA",2022,2022,Poster presentation,"**Quiroz-Moreno C.**, et al.",
workshop,FALSE,Integrating genomics and multi-platform metabolomics enables metabolite QTL detection in breeding-relevant apple germplasm,Foods for Health annual meeting,"Columbus, USA",2022,2022,Poster presentation,"**Quiroz-Moreno C.**, et al.",